
<- Route ----------------------------------------------------------------------
The Route class manage routes in this project it give a view page for specific
route.
Use of Route class
Route::get('route_name', function_to_exec);

---------------------------------------------------------------------- Route ->
