
<- Views ----------------------------------------------------------------------
The Views class manage views in this project it display specific page as given 
parameter.
Use of Views class
Views::view('view_template');

---------------------------------------------------------------------- Views ->
